<svg xmlns="http://www.w3.org/2000/svg" width="310" height="40" viewBox="0 0 310 40">
    <defs>
        <linearGradient id="a" x1="100%" x2="0%" y1="50%" y2="50%">
            <stop offset="0%" stop-color="#2977FC"/>
            <stop offset="100%" stop-color="#27BBFF"/>
        </linearGradient>
    </defs>
    <path fill="url(#a)" fill-rule="evenodd" d="M20 53h270c11.046 0 20 8.954 20 20s-8.954 20-20 20H20C8.954 93 0 84.046 0 73s8.954-20 20-20z" transform="translate(0 -53)"/>
</svg>
